<?xml version="1.0" encoding="utf-8"?>
<!-- Generator: Adobe Illustrator 23.0.0, SVG Export Plug-In . SVG Version: 6.00 Build 0)  -->
<svg version="1.1" id="Capa_1" xmlns="http://www.w3.org/2000/svg" xmlns:xlink="http://www.w3.org/1999/xlink" x="0px" y="0px"
	 width="451.8px" height="451.8px" viewBox="0 0 451.8 451.8" style="enable-background:new 0 0 451.8 451.8;" xml:space="preserve"
	>
<style type="text/css">
	.st0{fill:#6266B2;}
</style>
<g>
	<path class="st0" d="M225.9,354.7c-8.1,0-16.2-3.1-22.4-9.3L9.3,151.2c-12.4-12.4-12.4-32.4,0-44.8c12.4-12.4,32.4-12.4,44.7,0
		l171.9,171.9l171.9-171.9c12.4-12.4,32.4-12.4,44.7,0c12.4,12.4,12.4,32.4,0,44.8L248.3,345.4C242.1,351.6,234,354.7,225.9,354.7z"
		/>
</g>
</svg>
